{"next":"https://api.dev.parham.in/api/org/18/asset/?page=2&page_size=20","previous":null,"count":100,"current":1,"pages":5,"results":[{"host":"192.168.00.16","display_name":"device_00.16","unique_id":"0415cafd-74a4-4662-8e52-5e48bf1a5a56","tags":["database 16","server 16"],"type":"infra","is_live":null,"time_to_decommission":null,"created_at":"2022-07-20T09:10:53.432472Z","updated_at":"2022-07-20T09:10:53.432489Z","decommission_date":null,"org_id":18,"latest_risk_score":null,"scan_cycle_count":0,"vuln_count":0,"vuln_breakup":{},"last_scan":{},"cve_status_distribution":{}},{"host":"192.168.00.74","display_name":"device_00.74","unique_id":"046fdd69-975a-457e-ab11-7b086fdda3ee","tags":["database 74","server 74"],"type":"infra","is_live":null,"time_to_decommission":null,"created_at":"2022-07-20T09:10:56.236104Z","updated_at":"2022-07-20T09:10:56.236123Z","decommission_date":null,"org_id":18,"latest_risk_score":null,"scan_cycle_count":0,"vuln_count":0,"vuln_breakup":{},"last_scan":{},"cve_status_distribution":{}},{"host":"192.168.01.00","display_name":"device_01.00","unique_id":"07950c6f-9de5-489a-80b5-d1e16cd8d45f","tags":["database 100","server 100"],"type":"infra","is_live":null,"time_to_decommission":null,"created_at":"2022-07-20T09:10:57.438129Z","updated_at":"2022-07-20T09:10:57.438147Z","decommission_date":null,"org_id":18,"latest_risk_score":null,"scan_cycle_count":0,"vuln_count":0,"vuln_breakup":{},"last_scan":{},"cve_status_distribution":{}},{"host":"192.168.00.71","display_name":"device_00.71","unique_id":"0849f852-6811-4119-9880-a89a6ce5ef46","tags":["database 71","server 71"],"type":"infra","is_live":null,"time_to_decommission":null,"created_at":"2022-07-20T09:10:56.066992Z","updated_at":"2022-07-20T09:10:56.067010Z","decommission_date":null,"org_id":18,"latest_risk_score":null,"scan_cycle_count":0,"vuln_count":0,"vuln_breakup":{},"last_scan":{},"cve_status_distribution":{}},{"host":"192.168.00.73","display_name":"device_00.73","unique_id":"0ea8080c-f8ec-4a30-9dff-72b2d705e9b4","tags":["database 73","server 73"],"type":"infra","is_live":null,"time_to_decommission":null,"created_at":"2022-07-20T09:10:56.166251Z","updated_at":"2022-07-20T09:10:56.166269Z","decommission_date":null,"org_id":18,"latest_risk_score":null,"scan_cycle_count":0,"vuln_count":0,"vuln_breakup":{},"last_scan":{},"cve_status_distribution":{}},{"host":"192.168.00.96","display_name":"device_00.96","unique_id":"0ebc2264-7be5-4884-9bde-4637ede36bdc","tags":["database 96","server 96"],"type":"infra","is_live":null,"time_to_decommission":null,"created_at":"2022-07-20T09:10:57.251392Z","updated_at":"2022-07-20T09:10:57.251410Z","decommission_date":null,"org_id":18,"latest_risk_score":null,"scan_cycle_count":0,"vuln_count":0,"vuln_breakup":{},"last_scan":{},"cve_status_distribution":{}},{"host":"192.168.00.38","display_name":"device_00.38","unique_id":"0ee97fd7-c360-4514-b69e-00ca33582fab","tags":["database 38","server 38"],"type":"infra","is_live":null,"time_to_decommission":null,"created_at":"2022-07-20T09:10:54.581739Z","updated_at":"2022-07-20T09:10:54.581757Z","decommission_date":null,"org_id":18,"latest_risk_score":null,"scan_cycle_count":0,"vuln_count":0,"vuln_breakup":{},"last_scan":{},"cve_status_distribution":{}},{"host":"192.168.00.15","display_name":"device_00.15","unique_id":"1356b69b-7564-42ed-ad48-4890f20ebdfb","tags":["database 15","server 15"],"type":"infra","is_live":null,"time_to_decommission":null,"created_at":"2022-07-20T09:10:53.364057Z","updated_at":"2022-07-20T09:10:53.364075Z","decommission_date":null,"org_id":18,"latest_risk_score":null,"scan_cycle_count":0,"vuln_count":0,"vuln_breakup":{},"last_scan":{},"cve_status_distribution":{}},{"host":"192.168.00.42","display_name":"device_00.42","unique_id":"1591590a-65c2-4871-bd0c-1717d40ff3e1","tags":["database 42","server 42"],"type":"infra","is_live":null,"time_to_decommission":null,"created_at":"2022-07-20T09:10:54.767574Z","updated_at":"2022-07-20T09:10:54.767591Z","decommission_date":null,"org_id":18,"latest_risk_score":null,"scan_cycle_count":0,"vuln_count":0,"vuln_breakup":{},"last_scan":{},"cve_status_distribution":{}},{"host":"192.168.00.37","display_name":"device_00.37","unique_id":"1a92c7c3-1462-439c-bce4-a86634161066","tags":["database 37","server 37"],"type":"infra","is_live":null,"time_to_decommission":null,"created_at":"2022-07-20T09:10:54.555226Z","updated_at":"2022-07-20T09:10:54.555244Z","decommission_date":null,"org_id":18,"latest_risk_score":null,"scan_cycle_count":0,"vuln_count":0,"vuln_breakup":{},"last_scan":{},"cve_status_distribution":{}},{"host":"192.168.00.20","display_name":"device_00.20","unique_id":"1d64fc20-1ea1-4746-b146-32ef923439ce","tags":["database 20","server 20"],"type":"infra","is_live":null,"time_to_decommission":null,"created_at":"2022-07-20T09:10:53.565680Z","updated_at":"2022-07-20T09:10:53.565698Z","decommission_date":null,"org_id":18,"latest_risk_score":null,"scan_cycle_count":0,"vuln_count":0,"vuln_breakup":{},"last_scan":{},"cve_status_distribution":{}},{"host":"192.168.00.77","display_name":"device_00.77","unique_id":"20918885-281c-4ba7-8d7f-f31005d3bc08","tags":["database 77","server 77"],"type":"infra","is_live":null,"time_to_decommission":null,"created_at":"2022-07-20T09:10:56.358693Z","updated_at":"2022-07-20T09:10:56.358711Z","decommission_date":null,"org_id":18,"latest_risk_score":null,"scan_cycle_count":0,"vuln_count":0,"vuln_breakup":{},"last_scan":{},"cve_status_distribution":{}},{"host":"192.168.00.88","display_name":"device_00.88","unique_id":"2258839c-2635-4f36-95f7-9bb55a59bc24","tags":["database 88","server 88"],"type":"infra","is_live":null,"time_to_decommission":null,"created_at":"2022-07-20T09:10:56.854550Z","updated_at":"2022-07-20T09:10:56.854640Z","decommission_date":null,"org_id":18,"latest_risk_score":null,"scan_cycle_count":0,"vuln_count":0,"vuln_breakup":{},"last_scan":{},"cve_status_distribution":{}},{"host":"192.168.00.67","display_name":"device_00.67","unique_id":"262a9644-a56d-466d-bb1b-ca2ef7db02aa","tags":["database 67","server 67"],"type":"infra","is_live":null,"time_to_decommission":null,"created_at":"2022-07-20T09:10:55.931853Z","updated_at":"2022-07-20T09:10:55.931870Z","decommission_date":null,"org_id":18,"latest_risk_score":null,"scan_cycle_count":0,"vuln_count":0,"vuln_breakup":{},"last_scan":{},"cve_status_distribution":{}},{"host":"192.168.00.25","display_name":"device_00.25","unique_id":"29163e1a-629b-487b-91ac-504a7082b0a5","tags":["database 25","server 25"],"type":"infra","is_live":null,"time_to_decommission":null,"created_at":"2022-07-20T09:10:53.832944Z","updated_at":"2022-07-20T09:10:53.832963Z","decommission_date":null,"org_id":18,"latest_risk_score":null,"scan_cycle_count":0,"vuln_count":0,"vuln_breakup":{},"last_scan":{},"cve_status_distribution":{}},{"host":"192.168.00.34","display_name":"device_00.34","unique_id":"29d11ed3-4e4f-423e-96e2-e2bce5e309bd","tags":["database 34","server 34"],"type":"infra","is_live":null,"time_to_decommission":null,"created_at":"2022-07-20T09:10:54.451193Z","updated_at":"2022-07-20T09:10:54.451210Z","decommission_date":null,"org_id":18,"latest_risk_score":null,"scan_cycle_count":0,"vuln_count":0,"vuln_breakup":{},"last_scan":{},"cve_status_distribution":{}},{"host":"192.168.00.69","display_name":"device_00.69","unique_id":"2b46d052-b228-4bc1-94ac-e0b490ed727a","tags":["database 69","server 69"],"type":"infra","is_live":null,"time_to_decommission":null,"created_at":"2022-07-20T09:10:55.970235Z","updated_at":"2022-07-20T09:10:55.970253Z","decommission_date":null,"org_id":18,"latest_risk_score":null,"scan_cycle_count":0,"vuln_count":0,"vuln_breakup":{},"last_scan":{},"cve_status_distribution":{}},{"host":"192.168.00.48","display_name":"device_00.48","unique_id":"2dc3ed4f-73df-425c-b0a6-7699eac1bd2c","tags":["database 48","server 48"],"type":"infra","is_live":null,"time_to_decommission":null,"created_at":"2022-07-20T09:10:55.058845Z","updated_at":"2022-07-20T09:10:55.058864Z","decommission_date":null,"org_id":18,"latest_risk_score":null,"scan_cycle_count":0,"vuln_count":0,"vuln_breakup":{},"last_scan":{},"cve_status_distribution":{}},{"host":"192.168.00.98","display_name":"device_00.98","unique_id":"31913ba7-09a5-4bab-baa5-ddb4fd614577","tags":["database 98","server 98"],"type":"infra","is_live":null,"time_to_decommission":null,"created_at":"2022-07-20T09:10:57.345821Z","updated_at":"2022-07-20T09:10:57.345838Z","decommission_date":null,"org_id":18,"latest_risk_score":null,"scan_cycle_count":0,"vuln_count":0,"vuln_breakup":{},"last_scan":{},"cve_status_distribution":{}},{"host":"192.168.00.75","display_name":"device_00.75","unique_id":"31cbd29f-59df-4123-9fbe-4a32748294e9","tags":["database 75","server 75"],"type":"infra","is_live":null,"time_to_decommission":null,"created_at":"2022-07-20T09:10:56.255987Z","updated_at":"2022-07-20T09:10:56.256007Z","decommission_date":null,"org_id":18,"latest_risk_score":null,"scan_cycle_count":0,"vuln_count":0,"vuln_breakup":{},"last_scan":{},"cve_status_distribution":{}}],"page_size":20,"page_size_query_param":"page_size"}